simulation/qsim/mpsis_shokiri_2.msim.vcd
$comment
	File created using the following command:
		vcd file mpsis_shokiri_2.msim.vcd -direction
$end
$date
	Sat Nov 21 14:34:05 2020
$end
$version
	ModelSim Version 10.1d
$end
$timescale
	1ps
$end
$scope module MCD_vlg_vec_tst $end
$var reg 1 ! clk $end
$var reg 4 " DataIn [3:0] $end
$var reg 1 # reset $end
$var wire 1 $ CarryFlag $end
$var wire 1 % DataOut [3] $end
$var wire 1 & DataOut [2] $end
$var wire 1 ' DataOut [1] $end
$var wire 1 ( DataOut [0] $end
$var wire 1 ) PortID [2] $end
$var wire 1 * PortID [1] $end
$var wire 1 + PortID [0] $end
$var wire 1 , PortRead $end
$var wire 1 - PortWrite $end
$var wire 1 . ZeroFlag $end
$var wire 1 / sampler $end
$scope module i1 $end
$var wire 1 0 gnd $end
$var wire 1 1 vcc $end
$var wire 1 2 unknown $end
$var tri1 1 3 devclrn $end
$var tri1 1 4 devpor $end
$var tri1 1 5 devoe $end
$var wire 1 6 inst|ROM~5_combout $end
$var wire 1 7 inst4|RON[1][3]~regout $end
$var wire 1 8 inst4|RON[2][2]~regout $end
$var wire 1 9 inst4|RON[1][2]~regout $end
$var wire 1 : inst4|RON[0][2]~regout $end
$var wire 1 ; inst4|Mux1~0_combout $end
$var wire 1 < inst4|RON[3][2]~regout $end
$var wire 1 = inst4|Mux1~1_combout $end
$var wire 1 > inst4|RON[7][2]~regout $end
$var wire 1 ? inst4|RON[2][1]~regout $end
$var wire 1 @ inst4|RON[1][1]~regout $end
$var wire 1 A inst4|RON[0][1]~regout $end
$var wire 1 B inst4|Mux2~0_combout $end
$var wire 1 C inst4|RON[3][1]~regout $end
$var wire 1 D inst4|Mux2~1_combout $end
$var wire 1 E inst4|RON[5][1]~regout $end
$var wire 1 F inst|ROM~12_combout $end
$var wire 1 G inst4|RON[1][3]~feeder_combout $end
$var wire 1 H inst4|RON[2][2]~feeder_combout $end
$var wire 1 I inst4|RON[3][2]~feeder_combout $end
$var wire 1 J inst4|RON[7][2]~feeder_combout $end
$var wire 1 K inst4|RON[3][1]~feeder_combout $end
$var wire 1 L inst4|RON[2][1]~feeder_combout $end
$var wire 1 M inst4|RON[1][1]~feeder_combout $end
$var wire 1 N inst|Add0~0_combout $end
$var wire 1 O inst|p_counter~6_combout $end
$var wire 1 P reset~combout $end
$var wire 1 Q reset~clkctrl_outclk $end
$var wire 1 R inst|Add0~4_combout $end
$var wire 1 S inst|p_counter~10_combout $end
$var wire 1 T inst|ROM~4_combout $end
$var wire 1 U inst|Equal0~0_combout $end
$var wire 1 V inst|Add0~7 $end
$var wire 1 W inst|Add0~8_combout $end
$var wire 1 X inst|ROM~14_combout $end
$var wire 1 Y inst|ROM~15_combout $end
$var wire 1 Z inst|ROM~16_combout $end
$var wire 1 [ inst|p_counter~8_combout $end
$var wire 1 \ inst|ROM~18_combout $end
$var wire 1 ] inst|ControlBus_o~17_combout $end
$var wire 1 ^ inst|ROM~17_combout $end
$var wire 1 _ inst|ROM~20_combout $end
$var wire 1 ` inst|Add0~1 $end
$var wire 1 a inst|Add0~2_combout $end
$var wire 1 b inst|p_counter~9_combout $end
$var wire 1 c inst|Add0~3 $end
$var wire 1 d inst|Add0~5 $end
$var wire 1 e inst|Add0~6_combout $end
$var wire 1 f inst|p_counter~7_combout $end
$var wire 1 g inst|ControlBus_o~27_combout $end
$var wire 1 h inst|ROM~11_combout $end
$var wire 1 i inst|ROM~13_combout $end
$var wire 1 j inst|Add0~9 $end
$var wire 1 k inst|Add0~10_combout $end
$var wire 1 l inst|p_counter~11_combout $end
$var wire 1 m inst|ROM~2_combout $end
$var wire 1 n inst|ControlBus_o~24_combout $end
$var wire 1 o inst|ROM~3_combout $end
$var wire 1 p inst|ControlBus_o~25_combout $end
$var wire 1 q inst2|inst5~combout $end
$var wire 1 r clk~combout $end
$var wire 1 s clk~clkctrl_outclk $end
$var wire 1 t inst|ControlBus_o~13_combout $end
$var wire 1 u inst|ROM~8_combout $end
$var wire 1 v inst|ControlBus_o~15_combout $end
$var wire 1 w inst|ROM~7_combout $end
$var wire 1 x inst|ControlBus_o~26_combout $end
$var wire 1 y inst|ROM~6_combout $end
$var wire 1 z inst|ControlBus_o~14_combout $end
$var wire 1 { inst|ROM~10_combout $end
$var wire 1 | inst|ControlBus_o~19_combout $end
$var wire 1 } inst|ControlBus_o~21_combout $end
$var wire 1 ~ inst4|ALU|inst2|F~0_combout $end
$var wire 1 !! inst|ROM~9_combout $end
$var wire 1 "! inst|ControlBus_o~16_combout $end
$var wire 1 #! inst4|RgA[0]~feeder_combout $end
$var wire 1 $! inst4|ALU|inst1|F~0_combout $end
$var wire 1 %! inst4|ALU|inst1|R~0_combout $end
$var wire 1 &! inst|ControlBus_o~20_combout $end
$var wire 1 '! inst4|Decoder1~0_combout $end
$var wire 1 (! inst4|RON[2][0]~regout $end
$var wire 1 )! inst4|Decoder1~3_combout $end
$var wire 1 *! inst4|RON[3][0]~regout $end
$var wire 1 +! inst|ControlBus_o~22_combout $end
$var wire 1 ,! inst|ROM~19_combout $end
$var wire 1 -! inst|ControlBus_o~23_combout $end
$var wire 1 .! inst4|Decoder1~2_combout $end
$var wire 1 /! inst4|RON[0][0]~regout $end
$var wire 1 0! inst4|Decoder1~1_combout $end
$var wire 1 1! inst4|RON[1][0]~regout $end
$var wire 1 2! inst4|Mux3~0_combout $end
$var wire 1 3! inst4|Mux3~1_combout $end
$var wire 1 4! inst4|RON[5][0]~feeder_combout $end
$var wire 1 5! inst4|Decoder1~4_combout $end
$var wire 1 6! inst4|RON[5][0]~regout $end
$var wire 1 7! inst4|Decoder1~6_combout $end
$var wire 1 8! inst4|RON[4][0]~regout $end
$var wire 1 9! inst4|RON[6][0]~feeder_combout $end
$var wire 1 :! inst4|Decoder1~5_combout $end
$var wire 1 ;! inst4|RON[6][0]~regout $end
$var wire 1 <! inst4|Mux3~2_combout $end
$var wire 1 =! inst4|RON[7][0]~feeder_combout $end
$var wire 1 >! inst4|Decoder1~7_combout $end
$var wire 1 ?! inst4|RON[7][0]~regout $end
$var wire 1 @! inst4|Mux3~3_combout $end
$var wire 1 A! inst4|RgA[0]~3_combout $end
$var wire 1 B! inst|ControlBus_o~28_combout $end
$var wire 1 C! inst|ControlBus_o~29_combout $end
$var wire 1 D! inst4|ALU|inst1|D~0_combout $end
$var wire 1 E! inst4|ALU|inst2|R~1_combout $end
$var wire 1 F! inst4|ALU|inst2|R~combout $end
$var wire 1 G! inst4|RON[7][1]~regout $end
$var wire 1 H! inst4|RON[4][1]~regout $end
$var wire 1 I! inst4|RON[6][1]~regout $end
$var wire 1 J! inst4|Mux2~2_combout $end
$var wire 1 K! inst4|Mux2~3_combout $end
$var wire 1 L! inst4|RgA[1]~2_combout $end
$var wire 1 M! inst4|ALU|inst2|D~0_combout $end
$var wire 1 N! inst4|ALU|inst3|D~0_combout $end
$var wire 1 O! inst|ControlBus_o~18_combout $end
$var wire 1 P! inst4|ALU|inst2|R~0_combout $end
$var wire 1 Q! inst4|ALU|inst3|R~0_combout $end
$var wire 1 R! inst4|ALU|inst3|R~combout $end
$var wire 1 S! inst4|RON[5][2]~feeder_combout $end
$var wire 1 T! inst4|RON[5][2]~regout $end
$var wire 1 U! inst4|RON[4][2]~regout $end
$var wire 1 V! inst4|RON[6][2]~regout $end
$var wire 1 W! inst4|Mux1~2_combout $end
$var wire 1 X! inst4|Mux1~3_combout $end
$var wire 1 Y! inst4|RgA[2]~1_combout $end
$var wire 1 Z! inst4|ALU|inst3|F~0_combout $end
$var wire 1 [! inst4|ALU|inst|P[4]~0_combout $end
$var wire 1 \! inst4|ALU|inst4|R~0_combout $end
$var wire 1 ]! inst4|ALU|inst4|R~1_combout $end
$var wire 1 ^! inst4|RON[3][3]~feeder_combout $end
$var wire 1 _! inst4|RON[3][3]~regout $end
$var wire 1 `! inst4|RON[2][3]~feeder_combout $end
$var wire 1 a! inst4|RON[2][3]~regout $end
$var wire 1 b! inst4|RON[0][3]~regout $end
$var wire 1 c! inst4|Mux0~0_combout $end
$var wire 1 d! inst4|Mux0~1_combout $end
$var wire 1 e! inst4|RON[7][3]~regout $end
$var wire 1 f! inst4|RON[5][3]~regout $end
$var wire 1 g! inst4|RON[4][3]~regout $end
$var wire 1 h! inst4|RON[6][3]~regout $end
$var wire 1 i! inst4|Mux0~2_combout $end
$var wire 1 j! inst4|Mux0~3_combout $end
$var wire 1 k! inst4|RgA[3]~0_combout $end
$var wire 1 l! inst4|ALU|inst4|D~0_combout $end
$var wire 1 m! inst4|ALU|inst|P[4]~1_combout $end
$var wire 1 n! inst4|ALU|inst4|F~0_combout $end
$var wire 1 o! inst4|ALU|inst|P[4]~2_combout $end
$var wire 1 p! inst2|inst1~regout $end
$var wire 1 q! inst2|inst3~0_combout $end
$var wire 1 r! inst2|inst2~regout $end
$var wire 1 s! inst4|RgB [3] $end
$var wire 1 t! inst4|RgB [2] $end
$var wire 1 u! inst4|RgB [1] $end
$var wire 1 v! inst4|RgB [0] $end
$var wire 1 w! inst|ControlBus_o [16] $end
$var wire 1 x! inst|ControlBus_o [15] $end
$var wire 1 y! inst|ControlBus_o [14] $end
$var wire 1 z! inst|ControlBus_o [13] $end
$var wire 1 {! inst|ControlBus_o [12] $end
$var wire 1 |! inst|ControlBus_o [11] $end
$var wire 1 }! inst|ControlBus_o [10] $end
$var wire 1 ~! inst|ControlBus_o [9] $end
$var wire 1 !" inst|ControlBus_o [8] $end
$var wire 1 "" inst|ControlBus_o [7] $end
$var wire 1 #" inst|ControlBus_o [6] $end
$var wire 1 $" inst|ControlBus_o [5] $end
$var wire 1 %" inst|ControlBus_o [4] $end
$var wire 1 &" inst|ControlBus_o [3] $end
$var wire 1 '" inst|ControlBus_o [2] $end
$var wire 1 (" inst|ControlBus_o [1] $end
$var wire 1 )" inst|ControlBus_o [0] $end
$var wire 1 *" DataIn~combout [3] $end
$var wire 1 +" DataIn~combout [2] $end
$var wire 1 ," DataIn~combout [1] $end
$var wire 1 -" DataIn~combout [0] $end
$var wire 1 ." inst|p_counter [5] $end
$var wire 1 /" inst|p_counter [4] $end
$var wire 1 0" inst|p_counter [3] $end
$var wire 1 1" inst|p_counter [2] $end
$var wire 1 2" inst|p_counter [1] $end
$var wire 1 3" inst|p_counter [0] $end
$var wire 1 4" inst4|RgA [3] $end
$var wire 1 5" inst4|RgA [2] $end
$var wire 1 6" inst4|RgA [1] $end
$var wire 1 7" inst4|RgA [0] $end
$upscope $end
$upscope $end
$enddefinitions $end
#0
$dumpvars
0!
b0 "
1#
0$
0(
0'
0&
0%
0+
0*
0)
0,
0-
0.
x/
00
11
x2
13
14
15
06
07
08
09
0:
0;
0<
0=
0>
0?
0@
0A
0B
0C
0D
0E
0F
0G
0H
0I
0J
0K
0L
0M
1N
1O
1P
1Q
0R
0S
0T
1U
1V
0W
0X
0Y
0Z
0[
0\
0]
0^
0_
0`
0a
0b
1c
0d
0e
0f
1g
0h
0i
0j
0k
0l
0m
1n
0o
1p
0q
0r
0s
1t
0u
0v
0w
0x
0y
0z
0{
0|
0}
0~
0!!
0"!
0#!
0$!
0%!
0&!
0'!
0(!
0)!
0*!
0+!
0,!
0-!
0.!
0/!
00!
01!
02!
03!
04!
05!
06!
07!
08!
09!
0:!
0;!
0<!
0=!
0>!
0?!
0@!
0A!
0B!
0C!
0D!
0E!
0F!
0G!
0H!
0I!
0J!
0K!
0L!
0M!
0N!
0O!
0P!
0Q!
0R!
0S!
0T!
0U!
0V!
0W!
0X!
0Y!
0Z!
0[!
0\!
0]!
0^!
0_!
0`!
0a!
0b!
0c!
0d!
0e!
0f!
0g!
0h!
0i!
0j!
0k!
0l!
0m!
0n!
0o!
0p!
1q!
0r!
0v!
0u!
0t!
0s!
0)"
z("
0'"
z&"
0%"
0$"
0#"
0""
0!"
z~!
z}!
0|!
0{!
0z!
0y!
0x!
zw!
0-"
0,"
0+"
0*"
03"
02"
01"
00"
0/"
0."
07"
06"
05"
04"
$end
#10000
1!
1r
1s
0/
#20000
0#
b100 "
b101 "
0!
0P
1-"
1+"
0r
0s
0Q
1/
#30000
1!
1r
1s
0/
1r!
1)"
1!"
13"
1q
1,!
1o
1m
1`
0N
1.
1-!
0p
0n
1a
0O
1,
1b
#40000
0!
0r
0s
1/
#50000
1!
1r
1s
0/
15"
1""
17"
0)"
0!"
12"
03"
1Z!
1.!
1$!
0q
0,!
0o
0m
0c
0a
0`
1N
1R!
1%!
0-!
1p
1n
1R
0b
1c
1a
1O
0,
0q!
1S!
1J
1I
1H
1=!
19!
14!
1S
0R
1b
1&
1(
0S
#60000
b111 "
b11 "
0!
1,"
0+"
0r
0s
1/
#70000
1!
1r
1s
0/
0r!
1/!
0""
1)"
1!"
13"
1:
12!
0.!
1q
1B!
1,!
1o
1m
1Y
1X
1`
0N
16
1;
0.
13!
1-!
0p
0n
1Z
0c
0a
0O
1=
1,
1A!
1}
1R
0b
1Y!
1#!
1S
#80000
0!
0r
0s
1/
#90000
1!
1r
1s
0/
05"
1""
16"
1%"
0)"
0!"
02"
11"
03"
0Z!
10!
1~
02!
0;
0q
0B!
1!!
1w
1c
1a
0X
1T
1F
1u
1d
0R
0`
1N
1+
0R!
1F!
03!
0=
1"!
1x
0d
1R
1b
0Z
1i
1v
1e
0S
0a
1O
0,
0S!
0J
0I
0H
1M
1L
1K
0A!
0Y!
0e
1S
0}
1&!
1f
0b
0&
1'
0#!
0f
#100000
0!
0r
0s
1/
#110000
1!
1r
1s
0/
11!
1$"
1y!
0%"
1z!
1x!
13"
1@
00!
1'!
1n!
1Z!
1M!
1D!
0,!
0!!
0w
0u
0o
0m
0T
1`
0N
0F
06
1*
0+
1m!
1]!
1\!
1[!
1R!
1Q!
0F!
0%!
0-!
0"!
0x
0v
1p
1n
1a
0O
0i
1o!
1`!
1^!
1G
1S!
1J
1I
1H
0M
0L
0K
0=!
09!
04!
1b
0&!
1%
1&
0'
0(
#120000
b1011 "
b1010 "
b1000 "
0!
0-"
0,"
1*"
0r
0s
1/
#130000
1!
1r
1s
0/
1p!
1a!
0""
0$"
0y!
0z!
0x!
1)"
1!"
12"
03"
18
0'!
12!
1;
0n!
0Z!
0M!
0D!
1q
1,!
1o
0c
0a
1X
1F
1u
0`
1N
1$
0*
13!
1=
0m!
0]!
0[!
0R!
0Q!
1F!
1%!
1-!
0p
1d
0R
0b
1Z
1i
1c
1a
1O
1,
1A!
1Y!
0o!
0`!
0^!
0G
0\!
0S!
0J
0I
0H
1M
1L
1K
1=!
19!
14!
1e
0S
1}
1&!
0d
1R
1b
0%
0&
1'
1(
1#!
1f
0e
1S
0f
#140000
0!
0r
0s
1/
#150000
1!
1r
1s
0/
0p!
14"
1""
1$"
07"
06"
1%"
0)"
13"
1n!
1)!
1i!
1d!
1c!
1W!
1J!
1<!
03!
1B
0=
0$!
0~
0q
1B!
0,!
0u
1m
1\
1`
0N
0$
1*
1+
1]!
1k!
0d!
0A!
0Y!
0%!
0F!
1C!
0-!
0n
1_
0c
0a
0O
0,
1`!
1^!
1G
0k!
0#!
0=!
09!
04!
0M
0L
0K
0b
1d
0R
1%
0(
0'
1e
0S
1f
#160000
b0 "
0!
0*"
0r
0s
1/
#170000
1!
1r
1s
0/
1_!
1'"
0""
0!"
10"
02"
01"
03"
1d!
0)!
0C!
1{
0o
0i
1h
0\
0X
0V
0e
0B!
1c
1a
0F
0d
1R
0`
1N
1k!
1p
0&!
1i
0_
0Z
1W
0f
0R
1b
1V
1e
1S
0a
1O
1&!
0b
0S
0}
1[
0W
1f
0[
#180000
0!
0r
0s
1/
#190000
1!
1r
1s
0/
1s!
0'"
0%"
1)"
13"
1j!
0i!
0c!
1X!
0W!
1K!
0J!
1@!
0<!
02!
0B
0;
1y
1w
1o
1`
0N
0+
0j!
0X!
0K!
0@!
1=
1z
1x
0p
1a
0O
1Y!
1b
#200000
0!
0r
0s
1/
#210000
1!
1r
1s
0/
15"
1{!
1z!
0)"
12"
03"
1Z!
1l!
1,!
1|
0y
0w
0h
0c
0a
0`
1N
1R!
1o!
0]!
1-!
0z
0x
0i
1R
0b
1c
1a
1O
1S!
1J
1I
1H
0`!
0^!
0G
0&!
1S
0R
1b
1&
0%
0S
#220000
0!
0r
0s
1/
#230000
1!
1r
1s
0/
1p!
1""
0$"
1#"
0{!
0z!
13"
17!
0d!
12!
0=
1;
0k!
0Y!
0l!
1B!
0,!
1\
1`
0N
1$
0*
1)
13!
1=
0o!
1]!
1C!
0-!
1_
0c
0a
0O
1`!
1^!
1G
0b
1R
1%
1S
#240000
0!
0r
0s
1/
#250000
1!
1r
1s
0/
0p!
1g!
1U!
1'"
0""
02"
11"
03"
1i!
1W!
07!
0C!
0B!
1!!
0|
0o
1c
1a
0\
1X
1F
1d
0R
0`
1N
0$
1j!
1X!
1p
0d
1R
1b
0_
1Z
0V
0e
0S
0a
1O
1k!
1Y!
1V
1e
1S
0b
1}
1W
0f
0W
1f
1[
0[
#260000
0!
0r
0s
1/
#270000
1!
1r
1s
0/
1t!
0'"
1%"
0#"
1)"
13"
0j!
0i!
0X!
0W!
1B
0;
0k!
1A!
0!!
1y
1u
1o
1`
0N
0F
1+
0)
1D
0=
1#!
1v
0p
1a
0O
1L!
0Y!
1b
#280000
0!
0r
0s
1/
#290000
1!
1r
1s
0/
04"
05"
17"
16"
1x!
0)"
12"
03"
0n!
0Z!
1D!
1$!
1M!
1~
1,!
1|
0y
0v
0c
0a
1F
0u
0`
1N
0]!
0R!
1Q!
1-!
1d
0R
0b
1c
1a
1O
1q!
0`!
0^!
0G
0S!
0J
0I
0H
0V
0e
0S
0d
1R
1b
0%
0&
1W
0f
1V
1e
1S
1[
0W
1f
0[
#300000
0!
0r
0s
1/
#310000
1!
1r
1s
0/
1r!
1""
1#"
0x!
13"
15!
0L!
0A!
0M!
0D!
1B!
0,!
1u
0o
1`
0N
1.
1)
0#!
0Q!
1F!
1%!
0-!
1p
0c
0a
0O
0q!
1M
1L
1K
1=!
19!
14!
1d
0R
0b
1'
1(
0V
0e
0S
1W
0f
1[
#320000
0!
0r
0s
1/
#330000
1!
1r
1s
0/
0r!
16!
0""
1)"
00"
02"
1/"
01"
03"
1E
1@!
05!
1C!
0u
0m
1i
1]
0Y
0X
1V
1e
0|
1v
1c
1a
0p
0g
0Z
1j
0W
0d
1R
0`
1N
1K!
0.
1A!
0v
1&!
1^
1Z
0j
1W
1f
0R
1b
0}
0[
1k
0e
1S
0a
1O
1L!
1#!
1_
1}
1[
0k
0S
1l
0f
0b
0l
#340000
0!
0r
0s
1/
#350000
1!
1r
1s
0/
1'"
1$"
0#"
0)"
13"
1i!
1d!
1c!
1W!
1J!
1<!
03!
0D
1=
1;
1O!
0B!
1,!
1!!
0{
1y
1u
1o
1m
0^
1`
0N
1*
0)
1k!
0K!
0@!
0A!
0L!
1Y!
0=
0C!
1"!
1z
1v
0_
1a
0O
0#!
0Y!
1b
#360000
0!
0r
0s
1/
#370000
1!
1r
1s
0/
0t!
1|!
0'"
1y!
1{!
1x!
12"
03"
1Z!
1P!
1E!
0%!
1M!
1D!
0O!
0,!
1+!
0!!
0y
0v
0o
0m
0c
0a
1{
0u
0`
1N
1\!
1[!
1R!
1Q!
0=!
09!
04!
1%!
1-!
0"!
0z
1R
0b
1|
1c
1a
1O
0(
1]!
1S!
1J
1I
1H
0R!
1=!
19!
14!
1S
0R
1b
1&
1(
1`!
1^!
1G
0S!
0J
0I
0H
0S
1%
0&
#380000
0!
0r
0s
1/
#390000
1!
1r
1s
0/
0|!
1""
0y!
1#"
0{!
0x!
13"
0P!
0E!
0%!
1>!
0Z!
0k!
0]!
1R!
0M!
0D!
1,!
0+!
0{
1u
1o
1m
1Y
1X
1`
0N
0F
16
1)
0[!
0Q!
0=!
09!
04!
0R!
0`!
0^!
0G
1S!
1J
1I
1H
1%!
0-!
0|
0Z
0c
0a
0O
0i
0t
0U
0(
0%
1&
0\!
0S!
0J
0I
0H
1=!
19!
14!
0}
0[
1R
0b
0&!
0&
1(
#400000
0!
0r
0s
1/
#410000
1!
1r
1s
0/
1G!
1?!
0""
0$"
0%"
0#"
02"
0/"
03"
1K!
1@!
0>!
0c!
0J!
0<!
13!
1D
0B
1=
1j!
1X!
1k!
0,!
0o
0m
1c
1a
1^
0Y
0X
06
0u
1t
1g
0]
1Z
0W
1U
0`
1N
0*
0+
0)
1L!
1A!
0d!
0K!
0@!
0D
1Y!
1p
1n
0R
1b
1_
0Z
0^
1}
1S
1O
0a
1#!
0k!
0L!
0S
0b
0}
0_
#420000
0!
0r
0s
1/
#430000
1!
1r
1s
0/
1)"
1!"
13"
1q
1,!
1o
1m
1`
0N
1-!
0p
0n
1a
0O
1,
1b
#440000
0!
0r
0s
1/
#450000
1!
1r
1s
0/
1""
07"
06"
0)"
0!"
12"
03"
1.!
0$!
0~
0q
0,!
0o
0m
0c
0a
0`
1N
0%!
0F!
0-!
1p
1n
1R
0b
1c
1a
1O
0,
1q!
0=!
09!
04!
0M
0L
0K
1S
0R
1b
0(
0'
0S
#460000
0!
0r
0s
1/
#470000
1!
1r
1s
0/
1r!
0/!
0""
1)"
1!"
13"
0:
02!
0.!
1q
1B!
1,!
1o
1m
1Y
1X
1`
0N
16
0;
1.
03!
1-!
0p
0n
1Z
0c
0a
0O
0=
1,
0A!
1}
1R
0b
0Y!
0#!
1S
#480000
0!
0r
0s
1/
#490000
1!
1r
1s
0/
1""
1%"
0)"
0!"
02"
11"
03"
10!
0j!
0i!
0X!
0W!
1K!
1@!
12!
1B
0q
0B!
1!!
1w
1c
1a
0X
1T
1F
1u
1d
0R
0`
1N
1+
13!
1D
1"!
1x
0d
1R
1b
0Z
1i
1v
1e
0S
0a
1O
0,
1A!
1L!
0e
1S
0}
1&!
1f
0b
1#!
0f
#500000
0!
0r
0s
1/
#510000
1!
1r
1s
0/
01!
1$"
1y!
0%"
1z!
1x!
13"
0@
02!
1d!
03!
00!
1'!
0D
0B
1=
1n!
1Z!
1$!
1~
0K!
0@!
0,!
0!!
0w
0u
0o
0m
0T
1`
0N
0F
06
1*
0+
1k!
0A!
0L!
1Y!
1]!
1R!
1%!
1F!
0-!
0"!
0x
0v
1p
1n
1a
0O
0i
0#!
0q!
1`!
1^!
1G
1S!
1J
1I
1H
1=!
19!
14!
1M
1L
1K
1b
0&!
1%
1&
1(
1'
#520000
0!
0r
0s
1/
#530000
1!
1r
1s
0/
0r!
0""
1(!
0$"
0y!
0z!
0x!
1)"
1!"
12"
03"
1?
0'!
1i!
0d!
1W!
0=
0n!
0Z!
0$!
0~
1q
1,!
1o
0c
0a
1X
1F
1u
0`
1N
0.
0*
1j!
0k!
1X!
0Y!
0]!
0R!
0%!
0F!
1-!
0p
1d
0R
0b
1Z
1i
1c
1a
1O
1,
1q!
0`!
0^!
0G
0S!
0J
0I
0H
0=!
09!
04!
0M
0L
0K
1e
0S
1}
1&!
0d
1R
1b
0%
0&
0(
0'
1f
0e
1S
0f
#540000
0!
0r
0s
1/
#550000
1!
1r
1s
0/
1r!
1""
1$"
1%"
0)"
13"
1)!
1d!
1c!
1J!
1<!
13!
12!
1D
1B
1=
1;
0j!
0X!
1K!
1@!
0q
1B!
0,!
0u
1m
1\
1`
0N
1.
1*
1+
1k!
1A!
03!
1L!
0D
1Y!
0=
1C!
0-!
0n
1_
0c
0a
0O
0,
1#!
0A!
0L!
0Y!
0b
1d
0R
0#!
1e
0S
1f
#560000
0!
0r
0s
1/
#570000
1!
1r
1s
0/
0_!
1'"
0""
0!"
10"
02"
01"
03"
0d!
0)!
0C!
1{
0o
0i
1h
0\
0X
0V
0e
0B!
1c
1a
0F
0d
1R
0`
1N
0k!
1p
0&!
1i
0_
0Z
1W
0f
0R
1b
1V
1e
1S
0a
1O
1&!
0b
0S
0}
1[
0W
1f
0[
#580000
0!
0r
0s
1/
#590000
1!
1r
1s
0/
0s!
0'"
0%"
1)"
13"
1j!
0i!
0c!
1X!
0W!
0J!
0<!
02!
0B
0;
1y
1w
1o
1`
0N
0+
0j!
1d!
0X!
0K!
0@!
13!
1D
1=
1z
1x
0p
1a
0O
1k!
1Y!
1L!
1A!
1b
1#!
#600000
0!
0r
0s
1/
#610000
1!
1r
1s
0/
14"
15"
17"
16"
1{!
1z!
0)"
12"
03"
1n!
1Z!
1$!
1~
1,!
1|
0y
0w
0h
0c
0a
0`
1N
1]!
1R!
1%!
1F!
1-!
0z
0x
0i
1R
0b
1c
1a
1O
0q!
1`!
1^!
1G
1S!
1J
1I
1H
1=!
19!
14!
1M
1L
1K
0&!
1S
0R
1b
1%
1&
1(
1'
0S
#620000
0!
0r
0s
1/
#630000
1!
1r
1s
0/
0r!
1""
0$"
1#"
0{!
0z!
13"
17!
1i!
0d!
1W!
03!
0D
0=
0k!
0Y!
0L!
0A!
1B!
0,!
1\
1`
0N
0.
0*
1)
1j!
1X!
0#!
1C!
0-!
1_
0c
0a
0O
1k!
1Y!
0b
1R
1S
#640000
0!
0r
0s
1/
#650000
1!
1r
1s
0/
1H!
1'"
18!
0""
02"
11"
03"
1J!
1<!
07!
0C!
0B!
1!!
0|
0o
1c
1a
0\
1X
1F
1d
0R
0`
1N
1K!
1@!
1p
0d
1R
1b
0_
1Z
0V
0e
0S
0a
1O
1L!
1A!
1V
1e
1S
0b
1}
1W
0f
1#!
0W
1f
1[
0[
#660000
0!
0r
0s
1/
#670000
1!
1r
1s
0/
1s!
1t!
1u!
1v!
0'"
1%"
0#"
1)"
13"
0j!
0i!
0X!
0W!
0J!
0<!
0k!
0Y!
0L!
0A!
0!!
1y
1u
1o
1`
0N
0F
1+
0)
0#!
1v
0p
1a
0O
1b
#680000
0!
0r
0s
1/
#690000
1!
1r
1s
0/
04"
05"
07"
06"
1x!
0)"
12"
03"
0n!
0Z!
0$!
0~
1,!
1|
0y
0v
0c
0a
1F
0u
0`
1N
0]!
0R!
0%!
0F!
1-!
1d
0R
0b
1c
1a
1O
1q!
0`!
0^!
0G
0S!
0J
0I
0H
0=!
09!
04!
0M
0L
0K
0V
0e
0S
0d
1R
1b
0%
0&
0(
0'
1W
0f
1V
1e
1S
1[
0W
1f
0[
#700000
0!
0r
0s
1/
#710000
1!
1r
1s
0/
1r!
1""
1#"
0x!
13"
15!
1L!
1A!
1B!
0,!
1u
0o
1`
0N
1.
1)
1#!
0-!
1p
0c
0a
0O
1d
0R
0b
0V
0e
0S
1W
0f
1[
#720000
0!
0r
0s
1/
#730000
1!
1r
1s
0/
06!
0""
1)"
00"
02"
1/"
01"
03"
0E
0@!
05!
1C!
0u
0m
1i
1]
0Y
0X
1V
1e
0|
1v
1c
1a
0p
0g
0Z
1j
0W
0d
1R
0`
1N
0K!
0A!
0v
1&!
1^
1Z
0j
1W
1f
0R
1b
0}
0[
1k
0e
1S
0a
1O
0L!
0#!
1_
1}
1[
0k
0S
1l
0f
0b
0l
#740000
0!
0r
0s
1/
#750000
1!
1r
1s
0/
1'"
1$"
0#"
0)"
13"
1i!
1d!
1c!
1W!
1J!
1<!
13!
12!
1D
1B
1=
1;
1O!
0B!
1,!
1!!
0{
1y
1u
1o
1m
0^
1`
0N
1*
0)
1k!
0d!
1K!
1@!
1A!
03!
1L!
0D
1Y!
0=
0C!
1"!
1z
1v
0_
1a
0O
0k!
0L!
0A!
1#!
0Y!
1b
0#!
#760000
0!
0r
0s
1/
#770000
1!
1r
1s
0/
0s!
0t!
1|!
0u!
0v!
0'"
1y!
1{!
1x!
12"
03"
1n!
1Z!
1%!
1~
1$!
0O!
0,!
1+!
0!!
0y
0v
0o
0m
0c
0a
1{
0u
0`
1N
1]!
1R!
0q!
1=!
19!
14!
1F!
1P!
1E!
0%!
1-!
0"!
0z
1R
0b
1|
1c
1a
1O
1(
1`!
1^!
1G
1S!
1J
1I
1H
1M
1L
1K
1[!
1Q!
0F!
0=!
09!
04!
1S
0R
1b
1%
1&
1'
0(
1o!
1\!
0R!
0M
0L
0K
0S
0'
0]!
0S!
0J
0I
0H
0&
1q!
0`!
0^!
0G
0%
#780000
0!
0r
0s
1/
#790000
1!
1r
1s
0/
1p!
0|!
1""
0y!
1#"
0{!
0x!
13"
0P!
0E!
1%!
1>!
0n!
0Z!
0$!
0~
1L!
1A!
1]!
1R!
1,!
0+!
0{
1u
1o
1m
1Y
1X
1`
0N
0F
16
1$
1)
0[!
0Q!
0q!
1=!
19!
14!
0o!
0]!
0R!
0%!
1#!
1`!
1^!
1G
1S!
1J
1I
1H
0-!
0|
0Z
0c
0a
0O
0i
0t
0U
1(
1%
1&
0\!
1q!
0`!
0^!
0G
0S!
0J
0I
0H
0=!
09!
04!
0}
1R
0b
0&!
0%
0&
0(
1S
#800000
0!
0r
0s
1/
#810000
1!
1r
1s
0/
0p!
0G!
0?!
0""
0$"
0%"
0#"
02"
11"
03"
0>!
1d!
0c!
13!
02!
1D
0B
1=
0;
1j!
1X!
0L!
0A!
1B!
1w
1c
1a
1^
0X
1T
0u
0]
1d
0R
0`
1N
0$
0*
0+
0)
1k!
0d!
1A!
03!
1L!
0D
1Y!
0=
0#!
0d
1R
1b
1_
1t
1U
0^
1e
0S
0a
1O
0k!
1#!
0A!
0L!
0Y!
0e
1S
0b
1f
0_
0#!
0f
#820000
0!
0r
0s
1/
#830000
1!
1r
1s
0/
13"
0B!
0,!
1y
0w
0o
0m
0T
1`
0N
06
1a
0O
1b
#840000
0!
0r
0s
1/
#850000
1!
1r
1s
0/
12"
03"
1,!
0y
1o
0c
0a
1X
0`
1N
1d
0R
0b
1c
1a
1O
1e
0S
0d
1R
1b
1f
0e
1S
0f
#860000
0!
0r
0s
1/
